group,experiment,result
8,1,-0.08456178054447025
8,2,1.138935916329356
8,3,-0.9852841910691721
8,4,-1.2707819751683456
8,5,-0.3432861192607635
8,6,0.13484110702142024
8,7,-1.5687310672008192
8,8,0.3074766283923858
8,9,0.17549477442791903
8,10,0.7339294940647634
8,11,0.4632750021959784
8,12,-0.17423729688875203
8,13,1.4297982982517814
8,14,-0.34444485118967927
8,15,-0.09096445322885678
8,16,-0.28336176688698234
