group,experiment,result
15,1,2.6283571092627835
15,2,-1.5732655247006258
15,3,-2.7898844978064323
15,4,-0.28578224092849325
15,5,1.278491738632901
15,6,0.32652813589154434
15,7,1.0995103388889371
15,8,-0.18297422923152906
15,9,0.1875759139059757
15,10,0.7841014836043219
15,11,-1.4195876827793654
15,12,1.6551810262600195
15,13,-0.8430499287445262
15,14,-0.4432506159108927
15,15,-1.5229208782919863
15,16,1.1587013624037101
15,17,0.12305358392605287
